Aula5_Parte3/simulation/qsim/Aula5.msim.vcd
$comment
	File created using the following command:
		vcd file Aula5.msim.vcd -direction
$end
$date
	Sun Sep 26 23:02:37 2021
$end
$version
	ModelSim Version 2020.1
$end
$timescale
	1ps
$end

$scope module aula5_vhd_vec_tst $end
$var wire 1 ! BARRAMENTO_DADOS_ENDERECOS [8] $end
$var wire 1 " BARRAMENTO_DADOS_ENDERECOS [7] $end
$var wire 1 # BARRAMENTO_DADOS_ENDERECOS [6] $end
$var wire 1 $ BARRAMENTO_DADOS_ENDERECOS [5] $end
$var wire 1 % BARRAMENTO_DADOS_ENDERECOS [4] $end
$var wire 1 & BARRAMENTO_DADOS_ENDERECOS [3] $end
$var wire 1 ' BARRAMENTO_DADOS_ENDERECOS [2] $end
$var wire 1 ( BARRAMENTO_DADOS_ENDERECOS [1] $end
$var wire 1 ) BARRAMENTO_DADOS_ENDERECOS [0] $end
$var wire 1 * BARRAMENTO_DADOS_ENTRADA [7] $end
$var wire 1 + BARRAMENTO_DADOS_ENTRADA [6] $end
$var wire 1 , BARRAMENTO_DADOS_ENTRADA [5] $end
$var wire 1 - BARRAMENTO_DADOS_ENTRADA [4] $end
$var wire 1 . BARRAMENTO_DADOS_ENTRADA [3] $end
$var wire 1 / BARRAMENTO_DADOS_ENTRADA [2] $end
$var wire 1 0 BARRAMENTO_DADOS_ENTRADA [1] $end
$var wire 1 1 BARRAMENTO_DADOS_ENTRADA [0] $end
$var wire 1 2 BARRAMENTO_DADOS_SAIDA [7] $end
$var wire 1 3 BARRAMENTO_DADOS_SAIDA [6] $end
$var wire 1 4 BARRAMENTO_DADOS_SAIDA [5] $end
$var wire 1 5 BARRAMENTO_DADOS_SAIDA [4] $end
$var wire 1 6 BARRAMENTO_DADOS_SAIDA [3] $end
$var wire 1 7 BARRAMENTO_DADOS_SAIDA [2] $end
$var wire 1 8 BARRAMENTO_DADOS_SAIDA [1] $end
$var wire 1 9 BARRAMENTO_DADOS_SAIDA [0] $end
$var wire 1 : CLOCK_50 $end
$var wire 1 ; FLAG_IGUAL $end
$var wire 1 < KEY [3] $end
$var wire 1 = KEY [2] $end
$var wire 1 > KEY [1] $end
$var wire 1 ? KEY [0] $end
$var wire 1 @ SAIDA_PC [8] $end
$var wire 1 A SAIDA_PC [7] $end
$var wire 1 B SAIDA_PC [6] $end
$var wire 1 C SAIDA_PC [5] $end
$var wire 1 D SAIDA_PC [4] $end
$var wire 1 E SAIDA_PC [3] $end
$var wire 1 F SAIDA_PC [2] $end
$var wire 1 G SAIDA_PC [1] $end
$var wire 1 H SAIDA_PC [0] $end

$scope module i1 $end
$var wire 1 I gnd $end
$var wire 1 J vcc $end
$var wire 1 K unknown $end
$var wire 1 L devoe $end
$var wire 1 M devclrn $end
$var wire 1 N devpor $end
$var wire 1 O ww_devoe $end
$var wire 1 P ww_devclrn $end
$var wire 1 Q ww_devpor $end
$var wire 1 R ww_CLOCK_50 $end
$var wire 1 S ww_KEY [3] $end
$var wire 1 T ww_KEY [2] $end
$var wire 1 U ww_KEY [1] $end
$var wire 1 V ww_KEY [0] $end
$var wire 1 W ww_BARRAMENTO_DADOS_SAIDA [7] $end
$var wire 1 X ww_BARRAMENTO_DADOS_SAIDA [6] $end
$var wire 1 Y ww_BARRAMENTO_DADOS_SAIDA [5] $end
$var wire 1 Z ww_BARRAMENTO_DADOS_SAIDA [4] $end
$var wire 1 [ ww_BARRAMENTO_DADOS_SAIDA [3] $end
$var wire 1 \ ww_BARRAMENTO_DADOS_SAIDA [2] $end
$var wire 1 ] ww_BARRAMENTO_DADOS_SAIDA [1] $end
$var wire 1 ^ ww_BARRAMENTO_DADOS_SAIDA [0] $end
$var wire 1 _ ww_BARRAMENTO_DADOS_ENTRADA [7] $end
$var wire 1 ` ww_BARRAMENTO_DADOS_ENTRADA [6] $end
$var wire 1 a ww_BARRAMENTO_DADOS_ENTRADA [5] $end
$var wire 1 b ww_BARRAMENTO_DADOS_ENTRADA [4] $end
$var wire 1 c ww_BARRAMENTO_DADOS_ENTRADA [3] $end
$var wire 1 d ww_BARRAMENTO_DADOS_ENTRADA [2] $end
$var wire 1 e ww_BARRAMENTO_DADOS_ENTRADA [1] $end
$var wire 1 f ww_BARRAMENTO_DADOS_ENTRADA [0] $end
$var wire 1 g ww_BARRAMENTO_DADOS_ENDERECOS [8] $end
$var wire 1 h ww_BARRAMENTO_DADOS_ENDERECOS [7] $end
$var wire 1 i ww_BARRAMENTO_DADOS_ENDERECOS [6] $end
$var wire 1 j ww_BARRAMENTO_DADOS_ENDERECOS [5] $end
$var wire 1 k ww_BARRAMENTO_DADOS_ENDERECOS [4] $end
$var wire 1 l ww_BARRAMENTO_DADOS_ENDERECOS [3] $end
$var wire 1 m ww_BARRAMENTO_DADOS_ENDERECOS [2] $end
$var wire 1 n ww_BARRAMENTO_DADOS_ENDERECOS [1] $end
$var wire 1 o ww_BARRAMENTO_DADOS_ENDERECOS [0] $end
$var wire 1 p ww_FLAG_IGUAL $end
$var wire 1 q ww_SAIDA_PC [8] $end
$var wire 1 r ww_SAIDA_PC [7] $end
$var wire 1 s ww_SAIDA_PC [6] $end
$var wire 1 t ww_SAIDA_PC [5] $end
$var wire 1 u ww_SAIDA_PC [4] $end
$var wire 1 v ww_SAIDA_PC [3] $end
$var wire 1 w ww_SAIDA_PC [2] $end
$var wire 1 x ww_SAIDA_PC [1] $end
$var wire 1 y ww_SAIDA_PC [0] $end
$var wire 1 z \CLOCK_50~input_o\ $end
$var wire 1 { \KEY[1]~input_o\ $end
$var wire 1 | \KEY[2]~input_o\ $end
$var wire 1 } \KEY[3]~input_o\ $end
$var wire 1 ~ \~QUARTUS_CREATED_GND~I_combout\ $end
$var wire 1 !! \KEY[0]~input_o\ $end
$var wire 1 "! \KEY[0]~inputCLKENA0_outclk\ $end
$var wire 1 #! \SOMADOR|Add0~1_sumout\ $end
$var wire 1 $! \SOMADOR|Add0~2\ $end
$var wire 1 %! \SOMADOR|Add0~5_sumout\ $end
$var wire 1 &! \SOMADOR|Add0~6\ $end
$var wire 1 '! \SOMADOR|Add0~29_sumout\ $end
$var wire 1 (! \SOMADOR|Add0~30\ $end
$var wire 1 )! \SOMADOR|Add0~25_sumout\ $end
$var wire 1 *! \MEMORIA_INTRUCAO|memROM~1_combout\ $end
$var wire 1 +! \SOMADOR|Add0~26\ $end
$var wire 1 ,! \SOMADOR|Add0~21_sumout\ $end
$var wire 1 -! \SOMADOR|Add0~22\ $end
$var wire 1 .! \SOMADOR|Add0~17_sumout\ $end
$var wire 1 /! \SOMADOR|Add0~18\ $end
$var wire 1 0! \SOMADOR|Add0~13_sumout\ $end
$var wire 1 1! \SOMADOR|Add0~14\ $end
$var wire 1 2! \SOMADOR|Add0~9_sumout\ $end
$var wire 1 3! \MEMORIA_INTRUCAO|memROM~0_combout\ $end
$var wire 1 4! \MEMORIA_INTRUCAO|memROM~6_combout\ $end
$var wire 1 5! \MEMORIA_INTRUCAO|memROM~5_combout\ $end
$var wire 1 6! \MEMORIA_INTRUCAO|memROM~3_combout\ $end
$var wire 1 7! \MEMORIA_DADOS|dado_out[0]~8_combout\ $end
$var wire 1 8! \ULA1|Add0~1_sumout\ $end
$var wire 1 9! \ULA1|Equal0~0_combout\ $end
$var wire 1 :! \ULA1|Add1~34_cout\ $end
$var wire 1 ;! \ULA1|Add1~1_sumout\ $end
$var wire 1 <! \ULA1|saida[0]~0_combout\ $end
$var wire 1 =! \ULA1|Equal1~0_combout\ $end
$var wire 1 >! \MEMORIA_DADOS|ram~41_combout\ $end
$var wire 1 ?! \MEMORIA_DADOS|ram~17_q\ $end
$var wire 1 @! \MEMORIA_DADOS|ram~33_combout\ $end
$var wire 1 A! \MEMORIA_DADOS|dado_out~16_combout\ $end
$var wire 1 B! \MEMORIA_DADOS|dado_out[1]~9_combout\ $end
$var wire 1 C! \ULA1|Add0~2\ $end
$var wire 1 D! \ULA1|Add0~5_sumout\ $end
$var wire 1 E! \ULA1|Add1~2\ $end
$var wire 1 F! \ULA1|Add1~5_sumout\ $end
$var wire 1 G! \ULA1|saida[1]~1_combout\ $end
$var wire 1 H! \MEMORIA_DADOS|ram~18_q\ $end
$var wire 1 I! \MEMORIA_DADOS|ram~34_combout\ $end
$var wire 1 J! \MEMORIA_DADOS|dado_out[2]~10_combout\ $end
$var wire 1 K! \ULA1|Add0~6\ $end
$var wire 1 L! \ULA1|Add0~9_sumout\ $end
$var wire 1 M! \ULA1|Add1~6\ $end
$var wire 1 N! \ULA1|Add1~9_sumout\ $end
$var wire 1 O! \ULA1|saida[2]~2_combout\ $end
$var wire 1 P! \MEMORIA_DADOS|ram~19_q\ $end
$var wire 1 Q! \MEMORIA_DADOS|ram~35_combout\ $end
$var wire 1 R! \MEMORIA_DADOS|dado_out[3]~11_combout\ $end
$var wire 1 S! \ULA1|Add1~10\ $end
$var wire 1 T! \ULA1|Add1~13_sumout\ $end
$var wire 1 U! \ULA1|saida[3]~3_combout\ $end
$var wire 1 V! \ULA1|Add0~10\ $end
$var wire 1 W! \ULA1|Add0~13_sumout\ $end
$var wire 1 X! \REG1|DOUT[3]~DUPLICATE_q\ $end
$var wire 1 Y! \MEMORIA_DADOS|ram~20_q\ $end
$var wire 1 Z! \MEMORIA_DADOS|ram~36_combout\ $end
$var wire 1 [! \MEMORIA_DADOS|dado_out[4]~12_combout\ $end
$var wire 1 \! \ULA1|Add0~14\ $end
$var wire 1 ]! \ULA1|Add0~17_sumout\ $end
$var wire 1 ^! \ULA1|Add1~14\ $end
$var wire 1 _! \ULA1|Add1~17_sumout\ $end
$var wire 1 `! \ULA1|saida[4]~4_combout\ $end
$var wire 1 a! \MEMORIA_DADOS|ram~21_q\ $end
$var wire 1 b! \MEMORIA_DADOS|ram~37_combout\ $end
$var wire 1 c! \MEMORIA_DADOS|dado_out[5]~13_combout\ $end
$var wire 1 d! \ULA1|Add0~18\ $end
$var wire 1 e! \ULA1|Add0~21_sumout\ $end
$var wire 1 f! \ULA1|Add1~18\ $end
$var wire 1 g! \ULA1|Add1~21_sumout\ $end
$var wire 1 h! \ULA1|saida[5]~5_combout\ $end
$var wire 1 i! \MEMORIA_DADOS|ram~22_q\ $end
$var wire 1 j! \MEMORIA_DADOS|ram~38_combout\ $end
$var wire 1 k! \MEMORIA_DADOS|dado_out[6]~14_combout\ $end
$var wire 1 l! \ULA1|Add0~22\ $end
$var wire 1 m! \ULA1|Add0~25_sumout\ $end
$var wire 1 n! \ULA1|Add1~22\ $end
$var wire 1 o! \ULA1|Add1~25_sumout\ $end
$var wire 1 p! \ULA1|saida[6]~6_combout\ $end
$var wire 1 q! \MEMORIA_DADOS|ram~23_q\ $end
$var wire 1 r! \MEMORIA_DADOS|ram~39_combout\ $end
$var wire 1 s! \MEMORIA_DADOS|dado_out[7]~15_combout\ $end
$var wire 1 t! \ULA1|Add0~26\ $end
$var wire 1 u! \ULA1|Add0~29_sumout\ $end
$var wire 1 v! \ULA1|Add1~26\ $end
$var wire 1 w! \ULA1|Add1~29_sumout\ $end
$var wire 1 x! \ULA1|saida[7]~7_combout\ $end
$var wire 1 y! \MEMORIA_DADOS|ram~24_q\ $end
$var wire 1 z! \MEMORIA_DADOS|ram~40_combout\ $end
$var wire 1 {! \REG1|DOUT[7]~DUPLICATE_q\ $end
$var wire 1 |! \MEMORIA_INTRUCAO|memROM~2_combout\ $end
$var wire 1 }! \MEMORIA_INTRUCAO|memROM~4_combout\ $end
$var wire 1 ~! \PC|DOUT[3]~DUPLICATE_q\ $end
$var wire 1 !" \PC|DOUT[6]~DUPLICATE_q\ $end
$var wire 1 "" \PC|DOUT[7]~DUPLICATE_q\ $end
$var wire 1 #" \SOMADOR|Add0~10\ $end
$var wire 1 $" \SOMADOR|Add0~33_sumout\ $end
$var wire 1 %" \REG1|DOUT\ [7] $end
$var wire 1 &" \REG1|DOUT\ [6] $end
$var wire 1 '" \REG1|DOUT\ [5] $end
$var wire 1 (" \REG1|DOUT\ [4] $end
$var wire 1 )" \REG1|DOUT\ [3] $end
$var wire 1 *" \REG1|DOUT\ [2] $end
$var wire 1 +" \REG1|DOUT\ [1] $end
$var wire 1 ," \REG1|DOUT\ [0] $end
$var wire 1 -" \PC|DOUT\ [8] $end
$var wire 1 ." \PC|DOUT\ [7] $end
$var wire 1 /" \PC|DOUT\ [6] $end
$var wire 1 0" \PC|DOUT\ [5] $end
$var wire 1 1" \PC|DOUT\ [4] $end
$var wire 1 2" \PC|DOUT\ [3] $end
$var wire 1 3" \PC|DOUT\ [2] $end
$var wire 1 4" \PC|DOUT\ [1] $end
$var wire 1 5" \PC|DOUT\ [0] $end
$var wire 1 6" \ULA1|ALT_INV_Add1~29_sumout\ $end
$var wire 1 7" \ULA1|ALT_INV_Add1~25_sumout\ $end
$var wire 1 8" \ULA1|ALT_INV_Add1~21_sumout\ $end
$var wire 1 9" \ULA1|ALT_INV_Add1~17_sumout\ $end
$var wire 1 :" \ULA1|ALT_INV_Add1~13_sumout\ $end
$var wire 1 ;" \ULA1|ALT_INV_Add1~9_sumout\ $end
$var wire 1 <" \ULA1|ALT_INV_Add1~5_sumout\ $end
$var wire 1 =" \ULA1|ALT_INV_Add1~1_sumout\ $end
$var wire 1 >" \REG1|ALT_INV_DOUT\ [7] $end
$var wire 1 ?" \REG1|ALT_INV_DOUT\ [6] $end
$var wire 1 @" \REG1|ALT_INV_DOUT\ [5] $end
$var wire 1 A" \REG1|ALT_INV_DOUT\ [4] $end
$var wire 1 B" \REG1|ALT_INV_DOUT\ [3] $end
$var wire 1 C" \REG1|ALT_INV_DOUT\ [2] $end
$var wire 1 D" \REG1|ALT_INV_DOUT\ [1] $end
$var wire 1 E" \REG1|ALT_INV_DOUT\ [0] $end
$var wire 1 F" \REG1|ALT_INV_DOUT[3]~DUPLICATE_q\ $end
$var wire 1 G" \MEMORIA_INTRUCAO|ALT_INV_memROM~6_combout\ $end
$var wire 1 H" \MEMORIA_DADOS|ALT_INV_dado_out[7]~15_combout\ $end
$var wire 1 I" \MEMORIA_DADOS|ALT_INV_ram~24_q\ $end
$var wire 1 J" \MEMORIA_DADOS|ALT_INV_dado_out[6]~14_combout\ $end
$var wire 1 K" \MEMORIA_DADOS|ALT_INV_ram~23_q\ $end
$var wire 1 L" \MEMORIA_DADOS|ALT_INV_dado_out[5]~13_combout\ $end
$var wire 1 M" \MEMORIA_DADOS|ALT_INV_ram~22_q\ $end
$var wire 1 N" \MEMORIA_DADOS|ALT_INV_dado_out[4]~12_combout\ $end
$var wire 1 O" \MEMORIA_DADOS|ALT_INV_ram~21_q\ $end
$var wire 1 P" \MEMORIA_DADOS|ALT_INV_dado_out[3]~11_combout\ $end
$var wire 1 Q" \MEMORIA_DADOS|ALT_INV_ram~20_q\ $end
$var wire 1 R" \MEMORIA_DADOS|ALT_INV_dado_out[2]~10_combout\ $end
$var wire 1 S" \MEMORIA_DADOS|ALT_INV_ram~19_q\ $end
$var wire 1 T" \MEMORIA_DADOS|ALT_INV_dado_out[1]~9_combout\ $end
$var wire 1 U" \MEMORIA_DADOS|ALT_INV_ram~18_q\ $end
$var wire 1 V" \ULA1|ALT_INV_Equal0~0_combout\ $end
$var wire 1 W" \MEMORIA_DADOS|ALT_INV_dado_out[0]~8_combout\ $end
$var wire 1 X" \MEMORIA_DADOS|ALT_INV_ram~17_q\ $end
$var wire 1 Y" \MEMORIA_INTRUCAO|ALT_INV_memROM~5_combout\ $end
$var wire 1 Z" \PC|ALT_INV_DOUT\ [8] $end
$var wire 1 [" \PC|ALT_INV_DOUT\ [7] $end
$var wire 1 \" \PC|ALT_INV_DOUT\ [6] $end
$var wire 1 ]" \PC|ALT_INV_DOUT\ [5] $end
$var wire 1 ^" \PC|ALT_INV_DOUT\ [4] $end
$var wire 1 _" \PC|ALT_INV_DOUT\ [3] $end
$var wire 1 `" \PC|ALT_INV_DOUT\ [2] $end
$var wire 1 a" \PC|ALT_INV_DOUT\ [1] $end
$var wire 1 b" \PC|ALT_INV_DOUT\ [0] $end
$var wire 1 c" \MEMORIA_INTRUCAO|ALT_INV_memROM~3_combout\ $end
$var wire 1 d" \MEMORIA_INTRUCAO|ALT_INV_memROM~1_combout\ $end
$var wire 1 e" \MEMORIA_INTRUCAO|ALT_INV_memROM~0_combout\ $end
$upscope $end
$upscope $end
$enddefinitions $end
#0
$dumpvars
0:
0;
0I
1J
xK
1L
1M
1N
1O
1P
1Q
0R
0p
0z
x{
x|
x}
x~
0!!
0"!
1#!
0$!
0%!
0&!
0'!
0(!
0)!
1*!
0+!
0,!
0-!
0.!
0/!
00!
01!
02!
13!
04!
15!
06!
17!
18!
19!
1:!
1;!
1<!
1=!
0>!
0?!
0@!
0A!
1B!
0C!
0D!
0E!
1F!
0G!
0H!
0I!
1J!
0K!
0L!
0M!
1N!
0O!
0P!
0Q!
1R!
0S!
1T!
0U!
0V!
0W!
0X!
0Y!
0Z!
1[!
0\!
0]!
0^!
1_!
0`!
0a!
0b!
1c!
0d!
0e!
0f!
1g!
0h!
0i!
0j!
1k!
0l!
0m!
0n!
1o!
0p!
0q!
0r!
1s!
0t!
0u!
0v!
1w!
0x!
0y!
0z!
0{!
1|!
0}!
0~!
0!"
0""
0#"
0$"
06"
07"
08"
09"
0:"
0;"
0<"
0="
1F"
1G"
0H"
1I"
0J"
1K"
0L"
1M"
0N"
1O"
0P"
1Q"
0R"
1S"
0T"
1U"
0V"
0W"
1X"
0Y"
1c"
0d"
0e"
x<
x=
x>
0?
xS
xT
xU
0V
0W
0X
0Y
0Z
0[
0\
0]
0^
z_
z`
za
zb
zc
zd
ze
zf
0g
0h
0i
0j
0k
0l
0m
0n
1o
0q
0r
0s
0t
0u
0v
0w
0x
0y
0%"
0&"
0'"
0("
0)"
0*"
0+"
0,"
0-"
0."
0/"
00"
01"
02"
03"
04"
05"
1>"
1?"
1@"
1A"
1B"
1C"
1D"
1E"
1Z"
1["
1\"
1]"
1^"
1_"
1`"
1a"
1b"
0!
0"
0#
0$
0%
0&
0'
0(
1)
z*
z+
z,
z-
z.
z/
z0
z1
02
03
04
05
06
07
08
09
0@
0A
0B
0C
0D
0E
0F
0G
0H
$end
#10000
1?
1V
1!!
1"!
15"
1,"
0E"
0b"
0#!
1$!
14!
16!
09!
1G!
1O!
1U!
1`!
1h!
1p!
1x!
0|!
08!
1C!
0;!
1E!
1="
1V"
0c"
0G"
1^
1y
0F!
1M!
1D!
1%!
0D!
1K!
1F!
0M!
1L!
0N!
0T!
1W!
1]!
0_!
1e!
0g!
1m!
0o!
1u!
0w!
1>!
1}!
0<!
1<"
19
1H
1N!
16"
17"
18"
19"
1:"
1;"
0<"
0o
0G!
0N!
0L!
1V!
0;"
1G!
0O!
0U!
0`!
0h!
0p!
0x!
1;"
0)
1O!
0W!
1\!
1g
0O!
0]!
1d!
1!
0e!
1l!
0m!
1t!
0u!
#20000
0?
0V
0!!
0"!
#30000
1?
1V
1!!
1"!
05"
14"
1?!
0X"
0a"
1b"
1#!
0$!
19!
0%!
1&!
04!
05!
0=!
0>!
1A!
0B!
0J!
0R!
0[!
0c!
0k!
0s!
1@!
1H"
1J"
1L"
1N"
1P"
1R"
1T"
1Y"
1G"
0V"
1x
0y
1'!
1%!
0&!
1<!
1D!
0K!
0F!
1M!
0G!
1L!
0V!
1N!
1T!
1W!
0\!
1]!
0d!
1_!
1e!
0l!
1g!
1m!
0t!
1o!
1u!
1w!
0H
1G
0'!
06"
07"
08"
09"
0:"
0;"
1<"
1f
0e
0d
0c
0b
0a
0`
0_
0u!
0m!
0e!
0]!
0W!
0N!
1S!
0L!
1;"
11
00
0/
0.
0-
0,
0+
0*
0T!
1^!
1:"
0_!
1f!
19"
0g!
1n!
18"
0o!
1v!
17"
0w!
16"
#40000
0?
0V
0!!
0"!
#50000
1?
1V
1!!
1"!
15"
0,"
1+"
0D"
1E"
0b"
0#!
1$!
06!
09!
1=!
0A!
1B!
1J!
1R!
1[!
1c!
1k!
1s!
18!
0C!
1;!
0E!
0D!
1K!
1F!
0<"
0="
0H"
0J"
0L"
0N"
0P"
0R"
0T"
1V"
1c"
1]
0^
1y
1L!
0F!
1D!
0K!
0%!
1&!
0}!
0D!
1K!
1F!
0M!
0L!
1V!
1N!
0S!
1T!
0^!
1W!
1]!
1_!
0f!
1e!
1g!
0n!
1m!
1o!
0v!
1u!
1w!
1G!
1<"
09
18
1H
1'!
1L!
0V!
06"
07"
08"
09"
0:"
0;"
0<"
zf
ze
zd
zc
zb
za
z`
z_
0G!
0w!
0o!
0g!
0_!
0T!
0W!
1\!
0N!
0L!
1V!
1G!
1O!
1U!
1`!
1h!
1p!
1x!
1W!
0\!
1;"
1:"
19"
18"
17"
16"
z1
z0
z/
z.
z-
z,
z+
z*
0W!
1\!
0]!
1d!
0g
0x!
0p!
0h!
0`!
0U!
0O!
1]!
0d!
0e!
1l!
0]!
1d!
0!
1e!
0l!
0e!
1l!
0m!
1t!
1m!
0t!
0u!
0m!
1t!
1u!
0u!
#60000
0?
0V
0!!
0"!
#70000
1?
1V
1!!
1"!
05"
04"
13"
0`"
1a"
1b"
1#!
0$!
19!
1%!
0&!
15!
0@!
1|!
0'!
1(!
0*!
1d"
0Y"
0V"
1w
0x
0y
1)!
1'!
0(!
0%!
1D!
0K!
0F!
1M!
0G!
1L!
0V!
1N!
1T!
1W!
0\!
1]!
0d!
1_!
1e!
0l!
1g!
1m!
0t!
1o!
1u!
1w!
05!
09!
1@!
0|!
0H
0G
1F
0)!
1V"
1Y"
06"
07"
08"
09"
0:"
0;"
1<"
1o
0u!
0m!
0e!
0]!
0W!
0N!
1S!
0L!
0D!
1K!
1F!
0M!
1L!
1N!
0S!
0T!
1W!
1]!
0_!
1e!
0g!
1m!
0o!
1u!
0w!
1O!
1U!
1`!
1h!
1p!
1x!
1;"
1)
1T!
16"
17"
18"
19"
1:"
0;"
0<"
0o
0O!
0T!
0N!
0L!
1V!
0:"
1G!
1O!
0U!
0`!
0h!
0p!
0x!
1;"
1:"
0)
1U!
0W!
1\!
0U!
0O!
0]!
1d!
0e!
1l!
0m!
1t!
0u!
#80000
0?
0V
0!!
0"!
#90000
1?
1V
1!!
1"!
15"
0b"
0#!
1$!
1y
1%!
1H
#100000
0?
0V
0!!
0"!
#110000
1?
1V
1!!
1"!
05"
14"
0a"
1b"
1#!
0$!
0%!
1&!
1x
0y
0'!
1(!
1%!
0&!
0H
1G
1'!
0(!
1)!
0)!
#120000
0?
0V
0!!
0"!
#130000
1?
1V
1!!
1"!
15"
0b"
0#!
1$!
1y
0%!
1&!
1H
0'!
1(!
1)!
#140000
0?
0V
0!!
0"!
#150000
1?
1V
1!!
1"!
05"
04"
03"
12"
1~!
0_"
1`"
1a"
1b"
1#!
0$!
1%!
0&!
1'!
0(!
0)!
1+!
1v
0w
0x
0y
1,!
1)!
0+!
0'!
0%!
0H
0G
0F
1E
0,!
#160000
0?
0V
0!!
0"!
#170000
1?
1V
1!!
1"!
15"
0b"
0#!
1$!
1y
1%!
1H
#180000
0?
0V
0!!
0"!
#190000
1?
1V
1!!
1"!
05"
14"
0a"
1b"
1#!
0$!
0%!
1&!
1x
0y
1'!
1%!
0&!
0H
1G
0'!
#200000
0?
0V
0!!
0"!
#210000
1?
1V
1!!
1"!
15"
0b"
0#!
1$!
1y
0%!
1&!
1H
1'!
#220000
0?
0V
0!!
0"!
#230000
1?
1V
1!!
1"!
05"
04"
13"
0`"
1a"
1b"
1#!
0$!
1%!
0&!
0'!
1(!
1w
0x
0y
0)!
1+!
1'!
0(!
0%!
0H
0G
1F
1)!
0+!
1,!
0,!
#240000
0?
0V
0!!
0"!
#250000
1?
1V
1!!
1"!
15"
0b"
0#!
1$!
1y
1%!
1H
#260000
0?
0V
0!!
0"!
#270000
1?
1V
1!!
1"!
05"
14"
0a"
1b"
1#!
0$!
0%!
1&!
1x
0y
0'!
1(!
1%!
0&!
0H
1G
1'!
0(!
0)!
1+!
1,!
1)!
0+!
0,!
#280000
0?
0V
0!!
0"!
#290000
1?
1V
1!!
1"!
15"
0b"
0#!
1$!
1y
0%!
1&!
1H
0'!
1(!
0)!
1+!
1,!
#300000
0?
0V
0!!
0"!
#310000
1?
1V
1!!
1"!
05"
04"
03"
02"
11"
0~!
0^"
1_"
1`"
1a"
1b"
1#!
0$!
1%!
0&!
1'!
0(!
1)!
0+!
1*!
0,!
1-!
03!
1e"
0d"
0v
1u
0w
0x
0y
1.!
1,!
0-!
0)!
0'!
0%!
0H
0G
0F
0E
1D
0.!
#320000
0?
0V
0!!
0"!
#330000
1?
1V
1!!
1"!
15"
0b"
0#!
1$!
16!
0c"
1y
1%!
1H
#340000
0?
0V
0!!
0"!
#350000
1?
1V
1!!
1"!
05"
14"
0a"
1b"
1#!
0$!
0%!
1&!
1x
0y
1'!
1%!
0&!
0H
1G
0'!
#360000
0?
0V
0!!
0"!
#370000
1?
1V
1!!
1"!
15"
0b"
0#!
1$!
06!
1c"
1y
0%!
1&!
1H
1'!
#380000
0?
0V
0!!
0"!
#390000
1?
1V
1!!
1"!
05"
04"
13"
0`"
1a"
1b"
1#!
0$!
1%!
0&!
0'!
1(!
0*!
1d"
1w
0x
0y
1)!
1'!
0(!
0%!
0H
0G
1F
0)!
#400000
0?
0V
0!!
0"!
#410000
1?
1V
1!!
1"!
15"
0b"
0#!
1$!
1y
1%!
1H
#420000
0?
0V
0!!
0"!
#430000
1?
1V
1!!
1"!
05"
14"
0a"
1b"
1#!
0$!
0%!
1&!
1x
0y
0'!
1(!
1%!
0&!
0H
1G
1'!
0(!
1)!
0)!
#440000
0?
0V
0!!
0"!
#450000
1?
1V
1!!
1"!
15"
0b"
0#!
1$!
1y
0%!
1&!
1H
0'!
1(!
1)!
#460000
0?
0V
0!!
0"!
#470000
1?
1V
1!!
1"!
05"
04"
03"
12"
1~!
0_"
1`"
1a"
1b"
1#!
0$!
1%!
0&!
1'!
0(!
0)!
1+!
1v
0w
0x
0y
0,!
1-!
1)!
0+!
0'!
0%!
0H
0G
0F
1E
1,!
0-!
1.!
0.!
#480000
0?
0V
0!!
0"!
#490000
1?
1V
1!!
1"!
15"
0b"
0#!
1$!
1y
1%!
1H
#500000
0?
0V
0!!
0"!
#510000
1?
1V
1!!
1"!
05"
14"
0a"
1b"
1#!
0$!
0%!
1&!
1x
0y
1'!
1%!
0&!
0H
1G
0'!
#520000
0?
0V
0!!
0"!
#530000
1?
1V
1!!
1"!
15"
0b"
0#!
1$!
1y
0%!
1&!
1H
1'!
#540000
0?
0V
0!!
0"!
#550000
1?
1V
1!!
1"!
05"
04"
13"
0`"
1a"
1b"
1#!
0$!
1%!
0&!
0'!
1(!
1w
0x
0y
0)!
1+!
1'!
0(!
0%!
0H
0G
1F
1)!
0+!
0,!
1-!
1.!
1,!
0-!
0.!
#560000
0?
0V
0!!
0"!
#570000
1?
1V
1!!
1"!
15"
0b"
0#!
1$!
1y
1%!
1H
#580000
0?
0V
0!!
0"!
#590000
1?
1V
1!!
1"!
05"
14"
0a"
1b"
1#!
0$!
0%!
1&!
1x
0y
0'!
1(!
1%!
0&!
0H
1G
1'!
0(!
0)!
1+!
0,!
1-!
1)!
0+!
1,!
0-!
1.!
0.!
#600000
0?
0V
0!!
0"!
#610000
1?
1V
1!!
1"!
15"
0b"
0#!
1$!
1y
0%!
1&!
1H
0'!
1(!
0)!
1+!
0,!
1-!
1.!
#620000
0?
0V
0!!
0"!
#630000
1?
1V
1!!
1"!
05"
04"
03"
02"
01"
10"
0~!
0]"
1^"
1_"
1`"
1a"
1b"
1#!
0$!
1%!
0&!
1'!
0(!
1)!
0+!
1*!
1,!
0-!
0.!
1/!
0d"
0v
1t
0u
0w
0x
0y
10!
1.!
0/!
0,!
0)!
0'!
0%!
0H
0G
0F
0E
0D
1C
00!
#640000
0?
0V
0!!
0"!
#650000
1?
1V
1!!
1"!
15"
0b"
0#!
1$!
16!
0c"
1y
1%!
1H
#660000
0?
0V
0!!
0"!
#670000
1?
1V
1!!
1"!
05"
14"
0a"
1b"
1#!
0$!
0%!
1&!
1x
0y
1'!
1%!
0&!
0H
1G
0'!
#680000
0?
0V
0!!
0"!
#690000
1?
1V
1!!
1"!
15"
0b"
0#!
1$!
06!
1c"
1y
0%!
1&!
1H
1'!
#700000
0?
0V
0!!
0"!
#710000
1?
1V
1!!
1"!
05"
04"
13"
0`"
1a"
1b"
1#!
0$!
1%!
0&!
0'!
1(!
0*!
1d"
1w
0x
0y
1)!
1'!
0(!
0%!
0H
0G
1F
0)!
#720000
0?
0V
0!!
0"!
#730000
1?
1V
1!!
1"!
15"
0b"
0#!
1$!
1y
1%!
1H
#740000
0?
0V
0!!
0"!
#750000
1?
1V
1!!
1"!
05"
14"
0a"
1b"
1#!
0$!
0%!
1&!
1x
0y
0'!
1(!
1%!
0&!
0H
1G
1'!
0(!
1)!
0)!
#760000
0?
0V
0!!
0"!
#770000
1?
1V
1!!
1"!
15"
0b"
0#!
1$!
1y
0%!
1&!
1H
0'!
1(!
1)!
#780000
0?
0V
0!!
0"!
#790000
1?
1V
1!!
1"!
05"
04"
03"
12"
1~!
0_"
1`"
1a"
1b"
1#!
0$!
1%!
0&!
1'!
0(!
0)!
1+!
1v
0w
0x
0y
1,!
1)!
0+!
0'!
0%!
0H
0G
0F
1E
0,!
#800000
0?
0V
0!!
0"!
#810000
1?
1V
1!!
1"!
15"
0b"
0#!
1$!
1y
1%!
1H
#820000
0?
0V
0!!
0"!
#830000
1?
1V
1!!
1"!
05"
14"
0a"
1b"
1#!
0$!
0%!
1&!
1x
0y
1'!
1%!
0&!
0H
1G
0'!
#840000
0?
0V
0!!
0"!
